{
    "antifeatures": {
        "Ads": "Appen inneheld reklame",
        "DisabledAlgorithm": "Appen har ein svak tryggleikssignatur",
        "KnownVuln": "Appen inneheld eit kjent tryggleikshòl",
        "NoSourceSince": "Kjeldekoden er ikkje lenger tilgjengeleg, så det er ikkje mogleg med oppdatering",
        "NonFreeAdd": "Appen marknadsfører ufrie tillegg",
        "NonFreeAssets": "Appen inneheld ufrie ressursar",
        "NonFreeDep": "Appen er avhengig av andre ufrie appar",
        "NonFreeNet": "Appen marknadsfører ufrie nett-tenester",
        "Tracking": "Appen sporar og rapporterer aktiviteten din",
        "UpstreamNonFree": "Kjeldekoden til oppstraums­appen er ikkje heilt fri"
    },
    "index": {
        "download_fdroid": "Last ned F-Droid",
        "gpg_signature": "PGP-signatur",
        "screenshot": "Skjermbilete av Android-appen F-Droid",
        "title": "Kva er F-Droid?"
    },
    "navigation": {
        "about": "Om",
        "browse": "Utforsk",
        "contribute": "Hjelp til",
        "documentation": "Dokumentasjon",
        "forum": "Brukarforum",
        "issues": "Innmelde feil",
        "news": "Nyheiter"
    },
    "package": {
        "added_on": "Lagt til [package_added_date]",
        "anti_features": "Antifunksjonalitet",
        "anti_features_warning": "Denne appen har funksjonar du kanskje mislikar.",
        "author": "Utviklar",
        "build_metadata": "Metadata for appbygg",
        "changelog": "Endringslogg",
        "donate": "Gje pengegåve",
        "download": "Last ned [file_extension]",
        "flattr": "Flattr",
        "gpg_signature": "PGP-signatur",
        "issue_tracker": "Innmelde feil",
        "liberapay": "Liberapay",
        "license": "Lisens",
        "minimum_android_version": "Denne versjonen krev [android_version] eller nyare.",
        "new_in_version": "Ny i versjon [latest_version]",
        "packages": "Pakkar",
        "permissions": "Løyve",
        "source_code": "Kjeldekode",
        "technical_info": "Teknisk informasjon",
        "translation": "Omsetjing",
        "version_info": "<b>Versjon [package_version]</b> ([package_version_code])",
        "website": "Heimeside"
    },
    "permissions": {
        "permdesc_accessNetworkState": "Lèt appen visa informasjon om nettverks­tilkoplingar, for eksempel om kva nettverk som er tilgjengelege og kva nettverk du er tilkopla.",
        "permdesc_accessWimaxState": "Lèt appen sjå om WiMAX er slått på og lesa informasjon om eventuelle tilkopla WiMAX-nettverk.",
        "permdesc_bluetoothAdmin": "Lèt appen endra innstillingar for lokal Bluetooth-telefon, finna eksterne einingar og kopla til desse.",
        "permdesc_enableCarMode": "Tillat at appen kan slå på bilmodus.",
        "permdesc_imagesWrite": "Lèt appen gjera endringar i biletsamlinga di.",
        "permdesc_killBackgroundProcesses": "Lèt appen avslutta bakgrunns­prosessen til andre appar. Dette kan føra til at dei sluttar å køyra.",
        "permdesc_modifyAudioSettings": "Lèt appen endra dei globale lydinnstillingane, for eksempel lydstyrke og kva høgtalar som skal brukast til avspeling.",
        "permdesc_readCallLog": "Appen kan lesa telefonloggen din.",
        "permdesc_readPhoneState": "Lèt appen få tilgang til telefon­funksjonalitet på eininga. Appen kan då lesa telefon­nummeret og einings-ID-en, sjå om ein samtale er i gang og eventuelt med kva telefonnummer.",
        "permdesc_readSms": "Denne appen kan lesa alle tekstmeldingar (SMS) som er lagra på telefonen.",
        "permdesc_receiveMms": "Lèt appen ta imot og administrera MMS-meldingar. Appen kan då overvaka og sletta meldingar du får utan å visa dei til deg først.",
        "permdesc_route_media_output": "Lèt appen vidaresenda medieinnhald til eksterne einingar.",
        "permdesc_runInBackground": "Denne appen kan køyra i bakgrunnen. Det kan auka batteribruken.",
        "permdesc_setAlarm": "Lèt appen stilla inn alarmar i installerte vekkjarklokke-appar. Ikkje alle vekkjeklokke-appar støttar dette.",
        "permdesc_setTimeZone": "Lèt appen endra tidssona til telefonen.",
        "permdesc_setWallpaper": "Lèt appen endra system­bakgrunnsbiletet.",
        "permdesc_setWallpaperHints": "Lèt appen definera storleikshint for system­bakgrunnsbiletet.",
        "permdesc_statusBarService": "Gjev appen løyve til å visast som statuslinje.",
        "permdesc_uninstall_shortcut": "Lèt appen fjerna snarvegar på heime­skjermen utan brukar­medverknad.",
        "permdesc_videoWrite": "Lèt appen gjera endringar i videosamlinga.",
        "permdesc_writeGeolocationPermissions": "Lèt appen endra nettlesar­løyva for geografisk posisjon. Vondsinna appar kan bruka dette til å senda informasjon om kor du er til vilkårlege nettsider.",
        "permdesc_writeSyncSettings": "Lèt appen endra synkroniserings­innstillingane for kontoen. Dette kan for eksempel brukast til å slå på synkronisering av Kontaktar-appen med ein konto.",
        "permgroupbackgroundrequest_location": "Tillat <b>",
        "permgroupdesc_calendar": "få tilgang til kalenderen",
        "permgroupdesc_calllog": "lesa og skriva samtaleloggen",
        "permgroupdesc_camera": "ta bilete og videopptak",
        "permgroupdesc_contacts": "sjå kontaktane dine",
        "permgroupdesc_location": "få tilgang til geografisk plassering",
        "permgroupdesc_microphone": "ta opp lyd",
        "permgroupdesc_phone": "ringja og administrera oppringing",
        "permgroupdesc_sms": "senda og visa SMS-meldingar",
        "permgroupdesc_storage": "få tilgang til bilete, medieinnhald og filer på eininga",
        "permgrouplab_activityRecognition": "Fysisk aktivitet",
        "permgrouplab_calendar": "Kalender",
        "permgrouplab_calllog": "Telefonloggar",
        "permgrouplab_camera": "Kamera",
        "permgrouplab_contacts": "Kontaktar",
        "permgrouplab_location": "Plassering",
        "permgrouplab_microphone": "Mikrofon",
        "permgrouplab_phone": "Telefonnummer",
        "permgrouplab_sensors": "Kroppssensorar",
        "permgrouplab_sms": "SMS",
        "permgrouplab_storage": "Lagring",
        "permgrouprequest_activityRecognition": "Tillat <b>",
        "permgrouprequest_calendar": "Tillat <b>",
        "permgrouprequest_calllog": "Tillat <b>",
        "permgrouprequest_camera": "Tillat <b>",
        "permgrouprequest_contacts": "Tillat <b>",
        "permgrouprequest_location": "Tillat <b>",
        "permgrouprequest_microphone": "Tillat <b>",
        "permgrouprequest_phone": "Tillat <b>",
        "permgrouprequest_sensors": "Tillat <b>",
        "permgrouprequest_sms": "Tillat <b>",
        "permgrouprequest_storage": "Tillat <b>",
        "permlab_accessCoarseLocation": "få tilgang til omtrentleg posisjon (nettverksbasert) berre ved køyring i framgrunnen",
        "permlab_accessDrmCertificates": "få tilgang til DRM-sertifikat",
        "permlab_accessFineLocation": "få tilgang til nøyaktig posisjon berre ved køyring i framgrunnen",
        "permlab_accessNetworkConditions": "lytta etter observasjonar om nettverksforhold",
        "permlab_accessNetworkState": "sjå nettverkstilkoplingar",
        "permlab_accessNotifications": "få tilgang til varsel",
        "permlab_accessWifiState": "sjå Wi-Fi-tilkoplingar",
        "permlab_accessWimaxState": "kopla til og frå WiMAX",
        "permlab_access_notification_policy": "få tilgang til «Ikkje forstyrr»",
        "permlab_activityRecognition": "kjenn att fysisk aktivitet",
        "permlab_addVoicemail": "leggja til talepost",
        "permlab_answerPhoneCalls": "svara på oppringingar",
        "permlab_audioWrite": "gjera endringa i musikksamlinga di",
        "permlab_bindCarrierServices": "kopla til operatørtenester",
        "permlab_bind_connection_service": "samhandla med telefonitenester",
        "permlab_bluetooth": "para med Bluetooth-einingar",
        "permlab_bluetoothAdmin": "få tilgang til Bluetooth-innstillingar",
        "permlab_bodySensors": "få tilgangs til kroppssensorar (for eksempel pulsmålarar)",
        "permlab_callPhone": "ringja telefonnummer direkte",
        "permlab_camera": "ta bilete og videoopptak",
        "permlab_changeNetworkState": "endra nettverkssamband",
        "permlab_changeWifiState": "kopla til og frå Wi-Fi",
        "permlab_changeWimaxState": "endra WiMAX-status",
        "permlab_createNetworkSockets": "ha full nettverkstilgang",
        "permlab_disableKeyguard": "slå av skjermlåsen",
        "permlab_enableCarMode": "slå på bilmodus",
        "permlab_expandStatusBar": "utvida og slå saman statuslinja",
        "permlab_foregroundService": "køyra teneste i framgrunnen",
        "permlab_getAccounts": "finna kontoar på eininga",
        "permlab_getTasks": "få oversikt over appar som køyrer",
        "permlab_imagesWrite": "gjera endringa i biletsamlinga di",
        "permlab_install_shortcut": "installera snarvegar",
        "permlab_killBackgroundProcesses": "lukka andre appar",
        "permlab_manageFingerprint": "administrera fingeravtrykkslesar",
        "permlab_manageProfileAndDeviceOwners": "administrera profil og einingseigarar",
        "permlab_modifyAudioSettings": "endra lydinnstillingar",
        "permlab_persistentActivity": "velja at appen alltid skal køyra",
        "permlab_processOutgoingCalls": "vidaresenda innkommande samtalar",
        "permlab_readContacts": "få tilgang til kontaktlista",
        "permlab_readNetworkUsageHistory": "lesa tidlegare nettverksbruk",
        "permlab_readPhoneNumbers": "lesa telefonnummer",
        "permlab_readPhoneState": "les telefonstatus og -identitet",
        "permlab_readSms": "les tekstmeldingar (SMS eller MMS)",
        "permlab_readSyncSettings": "lesa synkronseringsinnstillingar",
        "permlab_readSyncStats": "lesa synkroniserings­statistikk",
        "permlab_receiveBootCompleted": "køyra ved oppstart",
        "permlab_receiveMms": "ta imot tekstmeldingar (MMS)",
        "permlab_receiveSms": "ta imot tekstmeldingar (SMS)",
        "permlab_receiveWapPush": "ta imot tekstmeldingar (WAP)",
        "permlab_recordAudio": "ta opp lyd",
        "permlab_removeDrmCertificates": "fjerna DRM-sertifikat",
        "permlab_reorderTasks": "endra rekkjefølgja på appar som køyrer",
        "permlab_requestDeletePackages": "be om avinstallering av pakkar",
        "permlab_requestIgnoreBatteryOptimizations": "be om ignorera batterioptimaliseringar",
        "permlab_requestInstallPackages": "be om pakkeinstallering",
        "permlab_requestPasswordComplexity": "lesa informasjon om låseskjermsnivå",
        "permlab_runInBackground": "køyra i bakgrunnen",
        "permlab_sdcardRead": "lesa innhaldet på felles lagringsområde",
        "permlab_sendSms": "senda og visa SMS-meldingar",
        "permlab_setInputCalibration": "endra kalibreringa av inneiningar",
        "permlab_setTimeZone": "endra tidssona",
        "permlab_setWallpaper": "byta bakgrunnsbiletet",
        "permlab_setWallpaperHints": "endra storleik på bakgrunnsbilete",
        "permlab_sim_communication": "senda kommandoar til SIM-kortet",
        "permlab_statusBar": "fjerna eller endra statuslinja",
        "permlab_statusBarService": "vera statuslinje",
        "permlab_subscribedFeedsRead": "lesa abonnement på nyheitskjelder",
        "permlab_systemAlertWindow": "Denne appen kan liggja over andre appar",
        "permlab_transmitIr": "infraraud overføring",
        "permlab_uninstall_shortcut": "avinstallera snarvegar",
        "permlab_useBiometric": "bruka biometrisk maskinvare",
        "permlab_useDataInBackground": "bruka data i bakgrunnen",
        "permlab_useFaceAuthentication": "bruka ansiktsgjenkjenning",
        "permlab_useFingerprint": "bruka fingeravtrykkslesar",
        "permlab_vibrate": "kontrollera vibrering",
        "permlab_videoWrite": "endra videosamlinga di",
        "permlab_wakeLock": "hindra at telefonen går i kvilemodus",
        "permlab_writeContacts": "gjera endringar i kontaktane dine",
        "permlab_writeSettings": "endra systeminnstillingane",
        "permlab_writeSyncSettings": "slå på og av synkronisering"
    },
    "sidebars": {
        "donate": {
            "bank_transfer_name": "Namn",
            "bitcoin_alt": "Gje pengegåve via Bitcoin",
            "flattr_alt": "Gje pengegåve via Flattr",
            "heading": "Gje pengegåve",
            "hellotux": "👕 T-skjorter 👕 frå",
            "hellotux_alt": "HELLOTUX",
            "hellotux_donation": "F-Droid får 3 euro for kvar selde T-skjorte.",
            "liberapay_alt": "Gje pengegåve via Liberapay",
            "litecoin_alt": "Gje pengegåve via Litecoin",
            "opencollective_alt": "Gje pengegåve til fellesskapet",
            "paypal_alt": "Gje pengegåve via PayPal",
            "via_bank_transfer": "Bankoverføring"
        },
        "lang": {
            "change": "Endra"
        },
        "last_updated": {
            "heading": "Sist oppdatert"
        },
        "latest_packages": {
            "heading": "Nyaste appar"
        },
        "news": {
            "heading": "Nyheiter"
        },
        "search": {
            "heading": "Finn appar",
            "noscript": "Krev at JavaScript er slått på",
            "search": "Søk"
        }
    }
}
